num_ret                  	2011-001	   486
num_rel                  	2011-001	    70
num_rel_ret              	2011-001	    48
P@5                      	2011-001	0.8000
P@10                     	2011-001	0.7000
P@15                     	2011-001	0.7333
P@20                     	2011-001	0.6000
P@30                     	2011-001	0.6000
P@50                     	2011-001	0.5000
P@100                    	2011-001	0.2800
P@200                    	2011-001	0.1600
P@500                    	2011-001	0.0960
R@5                      	2011-001	0.0571
R@10                     	2011-001	0.1000
R@15                     	2011-001	0.1571
R@20                     	2011-001	0.1714
R@30                     	2011-001	0.2571
R@50                     	2011-001	0.3571
R@100                    	2011-001	0.4000
R@200                    	2011-001	0.4571
R@500                    	2011-001	0.6857
iP@0.00                  	2011-001	1.0000
iP@0.10                  	2011-001	0.7333
iP@0.20                  	2011-001	0.6364
iP@0.30                  	2011-001	0.5946
iP@0.40                  	2011-001	0.3590
iP@0.50                  	2011-001	0.1215
iP@0.60                  	2011-001	0.1209
iP@0.70                  	2011-001	0.0000
iP@0.80                  	2011-001	0.0000
iP@0.90                  	2011-001	0.0000
iP@1.00                  	2011-001	0.0000
RP                       	2011-001	0.3714
RR                       	2011-001	1.0000
AP                       	2011-001	0.3023
nDCG@5                   	2011-001	0.8539
nDCG@10                  	2011-001	0.7624
nDCG@15                  	2011-001	0.7697
nDCG@20                  	2011-001	0.6743
nDCG@30                  	2011-001	0.6565
nDCG@50                  	2011-001	0.5614
nDCG@100                 	2011-001	0.5009
nDCG@200                 	2011-001	0.5326
nDCG@500                 	2011-001	0.6483

num_ret                  	2011-002	   500
num_rel                  	2011-002	    47
num_rel_ret              	2011-002	    37
P@5                      	2011-002	0.0000
P@10                     	2011-002	0.0000
P@15                     	2011-002	0.2000
P@20                     	2011-002	0.2000
P@30                     	2011-002	0.2667
P@50                     	2011-002	0.2000
P@100                    	2011-002	0.2000
P@200                    	2011-002	0.1350
P@500                    	2011-002	0.0740
R@5                      	2011-002	0.0000
R@10                     	2011-002	0.0000
R@15                     	2011-002	0.0638
R@20                     	2011-002	0.0851
R@30                     	2011-002	0.1702
R@50                     	2011-002	0.2128
R@100                    	2011-002	0.4255
R@200                    	2011-002	0.5745
R@500                    	2011-002	0.7872
iP@0.00                  	2011-002	0.2857
iP@0.10                  	2011-002	0.2857
iP@0.20                  	2011-002	0.2500
iP@0.30                  	2011-002	0.2500
iP@0.40                  	2011-002	0.2184
iP@0.50                  	2011-002	0.1773
iP@0.60                  	2011-002	0.1240
iP@0.70                  	2011-002	0.0954
iP@0.80                  	2011-002	0.0000
iP@0.90                  	2011-002	0.0000
iP@1.00                  	2011-002	0.0000
RP                       	2011-002	0.2128
RR                       	2011-002	0.0833
AP                       	2011-002	0.1415
nDCG@5                   	2011-002	0.0000
nDCG@10                  	2011-002	0.0000
nDCG@15                  	2011-002	0.1115
nDCG@20                  	2011-002	0.1096
nDCG@30                  	2011-002	0.1558
nDCG@50                  	2011-002	0.1490
nDCG@100                 	2011-002	0.2991
nDCG@200                 	2011-002	0.3769
nDCG@500                 	2011-002	0.4749

num_ret                  	2011-003	   227
num_rel                  	2011-003	    46
num_rel_ret              	2011-003	    18
P@5                      	2011-003	0.0000
P@10                     	2011-003	0.0000
P@15                     	2011-003	0.0000
P@20                     	2011-003	0.0500
P@30                     	2011-003	0.0333
P@50                     	2011-003	0.0800
P@100                    	2011-003	0.0800
P@200                    	2011-003	0.0850
P@500                    	2011-003	0.0360
R@5                      	2011-003	0.0000
R@10                     	2011-003	0.0000
R@15                     	2011-003	0.0000
R@20                     	2011-003	0.0217
R@30                     	2011-003	0.0217
R@50                     	2011-003	0.0870
R@100                    	2011-003	0.1739
R@200                    	2011-003	0.3696
R@500                    	2011-003	0.3913
iP@0.00                  	2011-003	0.1008
iP@0.10                  	2011-003	0.1008
iP@0.20                  	2011-003	0.1008
iP@0.30                  	2011-003	0.0947
iP@0.40                  	2011-003	0.0000
iP@0.50                  	2011-003	0.0000
iP@0.60                  	2011-003	0.0000
iP@0.70                  	2011-003	0.0000
iP@0.80                  	2011-003	0.0000
iP@0.90                  	2011-003	0.0000
iP@1.00                  	2011-003	0.0000
RP                       	2011-003	0.0870
RR                       	2011-003	0.0526
AP                       	2011-003	0.0321
nDCG@5                   	2011-003	0.0000
nDCG@10                  	2011-003	0.0000
nDCG@15                  	2011-003	0.0000
nDCG@20                  	2011-003	0.0164
nDCG@30                  	2011-003	0.0126
nDCG@50                  	2011-003	0.0582
nDCG@100                 	2011-003	0.1127
nDCG@200                 	2011-003	0.2048
nDCG@500                 	2011-003	0.2161

num_ret                  	2011-004	    86
num_rel                  	2011-004	    66
num_rel_ret              	2011-004	     1
P@5                      	2011-004	0.0000
P@10                     	2011-004	0.0000
P@15                     	2011-004	0.0000
P@20                     	2011-004	0.0000
P@30                     	2011-004	0.0000
P@50                     	2011-004	0.0200
P@100                    	2011-004	0.0100
P@200                    	2011-004	0.0050
P@500                    	2011-004	0.0020
R@5                      	2011-004	0.0000
R@10                     	2011-004	0.0000
R@15                     	2011-004	0.0000
R@20                     	2011-004	0.0000
R@30                     	2011-004	0.0000
R@50                     	2011-004	0.0152
R@100                    	2011-004	0.0152
R@200                    	2011-004	0.0152
R@500                    	2011-004	0.0152
iP@0.00                  	2011-004	0.0244
iP@0.10                  	2011-004	0.0000
iP@0.20                  	2011-004	0.0000
iP@0.30                  	2011-004	0.0000
iP@0.40                  	2011-004	0.0000
iP@0.50                  	2011-004	0.0000
iP@0.60                  	2011-004	0.0000
iP@0.70                  	2011-004	0.0000
iP@0.80                  	2011-004	0.0000
iP@0.90                  	2011-004	0.0000
iP@1.00                  	2011-004	0.0000
RP                       	2011-004	0.0152
RR                       	2011-004	0.0244
AP                       	2011-004	0.0004
nDCG@5                   	2011-004	0.0000
nDCG@10                  	2011-004	0.0000
nDCG@15                  	2011-004	0.0000
nDCG@20                  	2011-004	0.0000
nDCG@30                  	2011-004	0.0000
nDCG@50                  	2011-004	0.0149
nDCG@100                 	2011-004	0.0134
nDCG@200                 	2011-004	0.0134
nDCG@500                 	2011-004	0.0134

num_ret                  	2011-005	   301
num_rel                  	2011-005	    61
num_rel_ret              	2011-005	    57
P@5                      	2011-005	0.8000
P@10                     	2011-005	0.7000
P@15                     	2011-005	0.7333
P@20                     	2011-005	0.7000
P@30                     	2011-005	0.7667
P@50                     	2011-005	0.6800
P@100                    	2011-005	0.4500
P@200                    	2011-005	0.2800
P@500                    	2011-005	0.1140
R@5                      	2011-005	0.0656
R@10                     	2011-005	0.1148
R@15                     	2011-005	0.1803
R@20                     	2011-005	0.2295
R@30                     	2011-005	0.3770
R@50                     	2011-005	0.5574
R@100                    	2011-005	0.7377
R@200                    	2011-005	0.9180
R@500                    	2011-005	0.9344
iP@0.00                  	2011-005	1.0000
iP@0.10                  	2011-005	0.7879
iP@0.20                  	2011-005	0.7879
iP@0.30                  	2011-005	0.7879
iP@0.40                  	2011-005	0.7879
iP@0.50                  	2011-005	0.7273
iP@0.60                  	2011-005	0.5781
iP@0.70                  	2011-005	0.5059
iP@0.80                  	2011-005	0.4505
iP@0.90                  	2011-005	0.3182
iP@1.00                  	2011-005	0.0000
RP                       	2011-005	0.5738
RR                       	2011-005	1.0000
AP                       	2011-005	0.5941
nDCG@5                   	2011-005	0.5848
nDCG@10                  	2011-005	0.5145
nDCG@15                  	2011-005	0.5575
nDCG@20                  	2011-005	0.5645
nDCG@30                  	2011-005	0.5905
nDCG@50                  	2011-005	0.6194
nDCG@100                 	2011-005	0.6785
nDCG@200                 	2011-005	0.7689
nDCG@500                 	2011-005	0.7795

num_ret                  	2011-006	     6
num_rel                  	2011-006	    47
num_rel_ret              	2011-006	     0
P@5                      	2011-006	0.0000
P@10                     	2011-006	0.0000
P@15                     	2011-006	0.0000
P@20                     	2011-006	0.0000
P@30                     	2011-006	0.0000
P@50                     	2011-006	0.0000
P@100                    	2011-006	0.0000
P@200                    	2011-006	0.0000
P@500                    	2011-006	0.0000
R@5                      	2011-006	0.0000
R@10                     	2011-006	0.0000
R@15                     	2011-006	0.0000
R@20                     	2011-006	0.0000
R@30                     	2011-006	0.0000
R@50                     	2011-006	0.0000
R@100                    	2011-006	0.0000
R@200                    	2011-006	0.0000
R@500                    	2011-006	0.0000
iP@0.00                  	2011-006	0.0000
iP@0.10                  	2011-006	0.0000
iP@0.20                  	2011-006	0.0000
iP@0.30                  	2011-006	0.0000
iP@0.40                  	2011-006	0.0000
iP@0.50                  	2011-006	0.0000
iP@0.60                  	2011-006	0.0000
iP@0.70                  	2011-006	0.0000
iP@0.80                  	2011-006	0.0000
iP@0.90                  	2011-006	0.0000
iP@1.00                  	2011-006	0.0000
RP                       	2011-006	0.0000
RR                       	2011-006	0.0000
AP                       	2011-006	0.0000
nDCG@5                   	2011-006	0.0000
nDCG@10                  	2011-006	0.0000
nDCG@15                  	2011-006	0.0000
nDCG@20                  	2011-006	0.0000
nDCG@30                  	2011-006	0.0000
nDCG@50                  	2011-006	0.0000
nDCG@100                 	2011-006	0.0000
nDCG@200                 	2011-006	0.0000
nDCG@500                 	2011-006	0.0000

num_ret                  	2011-007	   500
num_rel                  	2011-007	    44
num_rel_ret              	2011-007	    38
P@5                      	2011-007	0.0000
P@10                     	2011-007	0.0000
P@15                     	2011-007	0.1333
P@20                     	2011-007	0.1000
P@30                     	2011-007	0.1333
P@50                     	2011-007	0.1000
P@100                    	2011-007	0.1000
P@200                    	2011-007	0.1250
P@500                    	2011-007	0.0760
R@5                      	2011-007	0.0000
R@10                     	2011-007	0.0000
R@15                     	2011-007	0.0455
R@20                     	2011-007	0.0455
R@30                     	2011-007	0.0909
R@50                     	2011-007	0.1136
R@100                    	2011-007	0.2273
R@200                    	2011-007	0.5682
R@500                    	2011-007	0.8636
iP@0.00                  	2011-007	0.1429
iP@0.10                  	2011-007	0.1359
iP@0.20                  	2011-007	0.1359
iP@0.30                  	2011-007	0.1359
iP@0.40                  	2011-007	0.1359
iP@0.50                  	2011-007	0.1359
iP@0.60                  	2011-007	0.1359
iP@0.70                  	2011-007	0.1319
iP@0.80                  	2011-007	0.0921
iP@0.90                  	2011-007	0.0000
iP@1.00                  	2011-007	0.0000
RP                       	2011-007	0.1136
RR                       	2011-007	0.0833
AP                       	2011-007	0.0979
nDCG@5                   	2011-007	0.0000
nDCG@10                  	2011-007	0.0000
nDCG@15                  	2011-007	0.0657
nDCG@20                  	2011-007	0.0547
nDCG@30                  	2011-007	0.0763
nDCG@50                  	2011-007	0.0820
nDCG@100                 	2011-007	0.1468
nDCG@200                 	2011-007	0.3318
nDCG@500                 	2011-007	0.4578

num_ret                  	2011-008	   500
num_rel                  	2011-008	    56
num_rel_ret              	2011-008	    49
P@5                      	2011-008	0.6000
P@10                     	2011-008	0.5000
P@15                     	2011-008	0.4667
P@20                     	2011-008	0.4500
P@30                     	2011-008	0.4667
P@50                     	2011-008	0.4200
P@100                    	2011-008	0.3300
P@200                    	2011-008	0.2100
P@500                    	2011-008	0.0980
R@5                      	2011-008	0.0536
R@10                     	2011-008	0.0893
R@15                     	2011-008	0.1250
R@20                     	2011-008	0.1607
R@30                     	2011-008	0.2500
R@50                     	2011-008	0.3750
R@100                    	2011-008	0.5893
R@200                    	2011-008	0.7500
R@500                    	2011-008	0.8750
iP@0.00                  	2011-008	0.7500
iP@0.10                  	2011-008	0.5000
iP@0.20                  	2011-008	0.4839
iP@0.30                  	2011-008	0.4750
iP@0.40                  	2011-008	0.4138
iP@0.50                  	2011-008	0.4054
iP@0.60                  	2011-008	0.3241
iP@0.70                  	2011-008	0.2667
iP@0.80                  	2011-008	0.1398
iP@0.90                  	2011-008	0.0000
iP@1.00                  	2011-008	0.0000
RP                       	2011-008	0.3929
RR                       	2011-008	0.5000
AP                       	2011-008	0.3319
nDCG@5                   	2011-008	0.4226
nDCG@10                  	2011-008	0.4100
nDCG@15                  	2011-008	0.3828
nDCG@20                  	2011-008	0.3697
nDCG@30                  	2011-008	0.3996
nDCG@50                  	2011-008	0.3975
nDCG@100                 	2011-008	0.5149
nDCG@200                 	2011-008	0.6025
nDCG@500                 	2011-008	0.6632

num_ret                  	2011-010	   100
num_rel                  	2011-010	    10
num_rel_ret              	2011-010	     9
P@5                      	2011-010	0.0000
P@10                     	2011-010	0.0000
P@15                     	2011-010	0.0000
P@20                     	2011-010	0.0000
P@30                     	2011-010	0.0000
P@50                     	2011-010	0.1000
P@100                    	2011-010	0.0900
P@200                    	2011-010	0.0450
P@500                    	2011-010	0.0180
R@5                      	2011-010	0.0000
R@10                     	2011-010	0.0000
R@15                     	2011-010	0.0000
R@20                     	2011-010	0.0000
R@30                     	2011-010	0.0000
R@50                     	2011-010	0.5000
R@100                    	2011-010	0.9000
R@200                    	2011-010	0.9000
R@500                    	2011-010	0.9000
iP@0.00                  	2011-010	0.1042
iP@0.10                  	2011-010	0.1042
iP@0.20                  	2011-010	0.1042
iP@0.30                  	2011-010	0.1042
iP@0.40                  	2011-010	0.1042
iP@0.50                  	2011-010	0.1042
iP@0.60                  	2011-010	0.1034
iP@0.70                  	2011-010	0.1034
iP@0.80                  	2011-010	0.1034
iP@0.90                  	2011-010	0.1034
iP@1.00                  	2011-010	0.0000
RP                       	2011-010	0.0000
RR                       	2011-010	0.0244
AP                       	2011-010	0.0722
nDCG@5                   	2011-010	0.0000
nDCG@10                  	2011-010	0.0000
nDCG@15                  	2011-010	0.0000
nDCG@20                  	2011-010	0.0000
nDCG@30                  	2011-010	0.0000
nDCG@50                  	2011-010	0.1943
nDCG@100                 	2011-010	0.3213
nDCG@200                 	2011-010	0.3213
nDCG@500                 	2011-010	0.3213

num_ret                  	2011-011	   500
num_rel                  	2011-011	    21
num_rel_ret              	2011-011	    10
P@5                      	2011-011	0.0000
P@10                     	2011-011	0.0000
P@15                     	2011-011	0.0000
P@20                     	2011-011	0.0000
P@30                     	2011-011	0.0333
P@50                     	2011-011	0.0200
P@100                    	2011-011	0.0400
P@200                    	2011-011	0.0300
P@500                    	2011-011	0.0200
R@5                      	2011-011	0.0000
R@10                     	2011-011	0.0000
R@15                     	2011-011	0.0000
R@20                     	2011-011	0.0000
R@30                     	2011-011	0.0476
R@50                     	2011-011	0.0476
R@100                    	2011-011	0.1905
R@200                    	2011-011	0.2857
R@500                    	2011-011	0.4762
iP@0.00                  	2011-011	0.0519
iP@0.10                  	2011-011	0.0519
iP@0.20                  	2011-011	0.0400
iP@0.30                  	2011-011	0.0302
iP@0.40                  	2011-011	0.0231
iP@0.50                  	2011-011	0.0000
iP@0.60                  	2011-011	0.0000
iP@0.70                  	2011-011	0.0000
iP@0.80                  	2011-011	0.0000
iP@0.90                  	2011-011	0.0000
iP@1.00                  	2011-011	0.0000
RP                       	2011-011	0.0000
RR                       	2011-011	0.0455
AP                       	2011-011	0.0165
nDCG@5                   	2011-011	0.0000
nDCG@10                  	2011-011	0.0000
nDCG@15                  	2011-011	0.0000
nDCG@20                  	2011-011	0.0000
nDCG@30                  	2011-011	0.0216
nDCG@50                  	2011-011	0.0216
nDCG@100                 	2011-011	0.0854
nDCG@200                 	2011-011	0.1267
nDCG@500                 	2011-011	0.1970

num_ret                  	2011-012	   500
num_rel                  	2011-012	    59
num_rel_ret              	2011-012	    51
P@5                      	2011-012	0.2000
P@10                     	2011-012	0.6000
P@15                     	2011-012	0.5333
P@20                     	2011-012	0.5500
P@30                     	2011-012	0.5667
P@50                     	2011-012	0.4000
P@100                    	2011-012	0.2100
P@200                    	2011-012	0.1450
P@500                    	2011-012	0.1020
R@5                      	2011-012	0.0169
R@10                     	2011-012	0.1017
R@15                     	2011-012	0.1356
R@20                     	2011-012	0.1864
R@30                     	2011-012	0.2881
R@50                     	2011-012	0.3390
R@100                    	2011-012	0.3559
R@200                    	2011-012	0.4915
R@500                    	2011-012	0.8644
iP@0.00                  	2011-012	1.0000
iP@0.10                  	2011-012	0.6000
iP@0.20                  	2011-012	0.5926
iP@0.30                  	2011-012	0.5625
iP@0.40                  	2011-012	0.1778
iP@0.50                  	2011-012	0.1598
iP@0.60                  	2011-012	0.1574
iP@0.70                  	2011-012	0.1344
iP@0.80                  	2011-012	0.1185
iP@0.90                  	2011-012	0.0000
iP@1.00                  	2011-012	0.0000
RP                       	2011-012	0.3390
RR                       	2011-012	1.0000
AP                       	2011-012	0.2648
nDCG@5                   	2011-012	0.3392
nDCG@10                  	2011-012	0.5033
nDCG@15                  	2011-012	0.4765
nDCG@20                  	2011-012	0.4953
nDCG@30                  	2011-012	0.4964
nDCG@50                  	2011-012	0.4148
nDCG@100                 	2011-012	0.4095
nDCG@200                 	2011-012	0.4709
nDCG@500                 	2011-012	0.6621

num_ret                  	2011-013	   404
num_rel                  	2011-013	    77
num_rel_ret              	2011-013	    27
P@5                      	2011-013	0.2000
P@10                     	2011-013	0.3000
P@15                     	2011-013	0.2667
P@20                     	2011-013	0.2000
P@30                     	2011-013	0.1667
P@50                     	2011-013	0.1400
P@100                    	2011-013	0.1200
P@200                    	2011-013	0.0750
P@500                    	2011-013	0.0540
R@5                      	2011-013	0.0130
R@10                     	2011-013	0.0390
R@15                     	2011-013	0.0519
R@20                     	2011-013	0.0519
R@30                     	2011-013	0.0649
R@50                     	2011-013	0.0909
R@100                    	2011-013	0.1558
R@200                    	2011-013	0.1948
R@500                    	2011-013	0.3506
iP@0.00                  	2011-013	0.3333
iP@0.10                  	2011-013	0.1765
iP@0.20                  	2011-013	0.0751
iP@0.30                  	2011-013	0.0699
iP@0.40                  	2011-013	0.0000
iP@0.50                  	2011-013	0.0000
iP@0.60                  	2011-013	0.0000
iP@0.70                  	2011-013	0.0000
iP@0.80                  	2011-013	0.0000
iP@0.90                  	2011-013	0.0000
iP@1.00                  	2011-013	0.0000
RP                       	2011-013	0.1558
RR                       	2011-013	0.3333
AP                       	2011-013	0.0478
nDCG@5                   	2011-013	0.0848
nDCG@10                  	2011-013	0.1229
nDCG@15                  	2011-013	0.1401
nDCG@20                  	2011-013	0.1166
nDCG@30                  	2011-013	0.1012
nDCG@50                  	2011-013	0.1016
nDCG@100                 	2011-013	0.1309
nDCG@200                 	2011-013	0.1578
nDCG@500                 	2011-013	0.2413

num_ret                  	2011-014	   461
num_rel                  	2011-014	    17
num_rel_ret              	2011-014	    15
P@5                      	2011-014	0.8000
P@10                     	2011-014	0.7000
P@15                     	2011-014	0.5333
P@20                     	2011-014	0.5500
P@30                     	2011-014	0.4333
P@50                     	2011-014	0.2800
P@100                    	2011-014	0.1500
P@200                    	2011-014	0.0750
P@500                    	2011-014	0.0300
R@5                      	2011-014	0.2353
R@10                     	2011-014	0.4118
R@15                     	2011-014	0.4706
R@20                     	2011-014	0.6471
R@30                     	2011-014	0.7647
R@50                     	2011-014	0.8235
R@100                    	2011-014	0.8824
R@200                    	2011-014	0.8824
R@500                    	2011-014	0.8824
iP@0.00                  	2011-014	1.0000
iP@0.10                  	2011-014	1.0000
iP@0.20                  	2011-014	1.0000
iP@0.30                  	2011-014	0.8571
iP@0.40                  	2011-014	0.7778
iP@0.50                  	2011-014	0.5652
iP@0.60                  	2011-014	0.5652
iP@0.70                  	2011-014	0.5652
iP@0.80                  	2011-014	0.3333
iP@0.90                  	2011-014	0.0000
iP@1.00                  	2011-014	0.0000
RP                       	2011-014	0.4706
RR                       	2011-014	1.0000
AP                       	2011-014	0.6084
nDCG@5                   	2011-014	0.7840
nDCG@10                  	2011-014	0.6961
nDCG@15                  	2011-014	0.6577
nDCG@20                  	2011-014	0.7392
nDCG@30                  	2011-014	0.7818
nDCG@50                  	2011-014	0.8176
nDCG@100                 	2011-014	0.8329
nDCG@200                 	2011-014	0.8329
nDCG@500                 	2011-014	0.8329

num_ret                  	2011-016	   500
num_rel                  	2011-016	    78
num_rel_ret              	2011-016	    76
P@5                      	2011-016	0.8000
P@10                     	2011-016	0.9000
P@15                     	2011-016	0.8667
P@20                     	2011-016	0.8000
P@30                     	2011-016	0.7667
P@50                     	2011-016	0.7800
P@100                    	2011-016	0.6600
P@200                    	2011-016	0.3700
P@500                    	2011-016	0.1520
R@5                      	2011-016	0.0513
R@10                     	2011-016	0.1154
R@15                     	2011-016	0.1667
R@20                     	2011-016	0.2051
R@30                     	2011-016	0.2949
R@50                     	2011-016	0.5000
R@100                    	2011-016	0.8462
R@200                    	2011-016	0.9487
R@500                    	2011-016	0.9744
iP@0.00                  	2011-016	1.0000
iP@0.10                  	2011-016	0.9167
iP@0.20                  	2011-016	0.8400
iP@0.30                  	2011-016	0.7800
iP@0.40                  	2011-016	0.7800
iP@0.50                  	2011-016	0.7800
iP@0.60                  	2011-016	0.7273
iP@0.70                  	2011-016	0.7000
iP@0.80                  	2011-016	0.6702
iP@0.90                  	2011-016	0.4897
iP@1.00                  	2011-016	0.0000
RP                       	2011-016	0.6923
RR                       	2011-016	1.0000
AP                       	2011-016	0.7165
nDCG@5                   	2011-016	0.7618
nDCG@10                  	2011-016	0.7017
nDCG@15                  	2011-016	0.6570
nDCG@20                  	2011-016	0.5966
nDCG@30                  	2011-016	0.5989
nDCG@50                  	2011-016	0.6430
nDCG@100                 	2011-016	0.7778
nDCG@200                 	2011-016	0.8350
nDCG@500                 	2011-016	0.8531

num_ret                  	2011-017	   500
num_rel                  	2011-017	    50
num_rel_ret              	2011-017	    32
P@5                      	2011-017	0.0000
P@10                     	2011-017	0.1000
P@15                     	2011-017	0.0667
P@20                     	2011-017	0.1500
P@30                     	2011-017	0.1000
P@50                     	2011-017	0.0800
P@100                    	2011-017	0.0900
P@200                    	2011-017	0.0850
P@500                    	2011-017	0.0640
R@5                      	2011-017	0.0000
R@10                     	2011-017	0.0200
R@15                     	2011-017	0.0200
R@20                     	2011-017	0.0600
R@30                     	2011-017	0.0600
R@50                     	2011-017	0.0800
R@100                    	2011-017	0.1800
R@200                    	2011-017	0.3400
R@500                    	2011-017	0.6400
iP@0.00                  	2011-017	0.1667
iP@0.10                  	2011-017	0.1062
iP@0.20                  	2011-017	0.1062
iP@0.30                  	2011-017	0.1039
iP@0.40                  	2011-017	0.1039
iP@0.50                  	2011-017	0.0903
iP@0.60                  	2011-017	0.0644
iP@0.70                  	2011-017	0.0000
iP@0.80                  	2011-017	0.0000
iP@0.90                  	2011-017	0.0000
iP@1.00                  	2011-017	0.0000
RP                       	2011-017	0.0800
RR                       	2011-017	0.1250
AP                       	2011-017	0.0604
nDCG@5                   	2011-017	0.0000
nDCG@10                  	2011-017	0.0694
nDCG@15                  	2011-017	0.0550
nDCG@20                  	2011-017	0.0874
nDCG@30                  	2011-017	0.0749
nDCG@50                  	2011-017	0.0699
nDCG@100                 	2011-017	0.1298
nDCG@200                 	2011-017	0.2067
nDCG@500                 	2011-017	0.3456

num_ret                  	2011-018	   500
num_rel                  	2011-018	    48
num_rel_ret              	2011-018	    48
P@5                      	2011-018	0.6000
P@10                     	2011-018	0.4000
P@15                     	2011-018	0.4000
P@20                     	2011-018	0.4000
P@30                     	2011-018	0.5000
P@50                     	2011-018	0.4800
P@100                    	2011-018	0.4600
P@200                    	2011-018	0.2350
P@500                    	2011-018	0.0960
R@5                      	2011-018	0.0625
R@10                     	2011-018	0.0833
R@15                     	2011-018	0.1250
R@20                     	2011-018	0.1667
R@30                     	2011-018	0.3125
R@50                     	2011-018	0.5000
R@100                    	2011-018	0.9583
R@200                    	2011-018	0.9792
R@500                    	2011-018	1.0000
iP@0.00                  	2011-018	1.0000
iP@0.10                  	2011-018	0.5714
iP@0.20                  	2011-018	0.5714
iP@0.30                  	2011-018	0.5714
iP@0.40                  	2011-018	0.5714
iP@0.50                  	2011-018	0.5000
iP@0.60                  	2011-018	0.5000
iP@0.70                  	2011-018	0.5000
iP@0.80                  	2011-018	0.4815
iP@0.90                  	2011-018	0.4731
iP@1.00                  	2011-018	0.1412
RP                       	2011-018	0.4792
RR                       	2011-018	1.0000
AP                       	2011-018	0.4983
nDCG@5                   	2011-018	0.3972
nDCG@10                  	2011-018	0.3456
nDCG@15                  	2011-018	0.3876
nDCG@20                  	2011-018	0.3906
nDCG@30                  	2011-018	0.4672
nDCG@50                  	2011-018	0.4888
nDCG@100                 	2011-018	0.7309
nDCG@200                 	2011-018	0.7409
nDCG@500                 	2011-018	0.7490

num_ret                  	2011-019	   500
num_rel                  	2011-019	    78
num_rel_ret              	2011-019	    38
P@5                      	2011-019	0.0000
P@10                     	2011-019	0.1000
P@15                     	2011-019	0.0667
P@20                     	2011-019	0.1000
P@30                     	2011-019	0.1000
P@50                     	2011-019	0.1000
P@100                    	2011-019	0.0600
P@200                    	2011-019	0.1050
P@500                    	2011-019	0.0760
R@5                      	2011-019	0.0000
R@10                     	2011-019	0.0128
R@15                     	2011-019	0.0128
R@20                     	2011-019	0.0256
R@30                     	2011-019	0.0385
R@50                     	2011-019	0.0641
R@100                    	2011-019	0.0769
R@200                    	2011-019	0.2692
R@500                    	2011-019	0.4872
iP@0.00                  	2011-019	0.1250
iP@0.10                  	2011-019	0.1066
iP@0.20                  	2011-019	0.1066
iP@0.30                  	2011-019	0.0956
iP@0.40                  	2011-019	0.0870
iP@0.50                  	2011-019	0.0000
iP@0.60                  	2011-019	0.0000
iP@0.70                  	2011-019	0.0000
iP@0.80                  	2011-019	0.0000
iP@0.90                  	2011-019	0.0000
iP@1.00                  	2011-019	0.0000
RP                       	2011-019	0.0769
RR                       	2011-019	0.1250
AP                       	2011-019	0.0427
nDCG@5                   	2011-019	0.0000
nDCG@10                  	2011-019	0.0694
nDCG@15                  	2011-019	0.0538
nDCG@20                  	2011-019	0.0610
nDCG@30                  	2011-019	0.0691
nDCG@50                  	2011-019	0.0712
nDCG@100                 	2011-019	0.0711
nDCG@200                 	2011-019	0.1993
nDCG@500                 	2011-019	0.3052

num_ret                  	2011-020	   404
num_rel                  	2011-020	    27
num_rel_ret              	2011-020	     4
P@5                      	2011-020	0.2000
P@10                     	2011-020	0.1000
P@15                     	2011-020	0.0667
P@20                     	2011-020	0.0500
P@30                     	2011-020	0.0333
P@50                     	2011-020	0.0200
P@100                    	2011-020	0.0200
P@200                    	2011-020	0.0200
P@500                    	2011-020	0.0080
R@5                      	2011-020	0.0370
R@10                     	2011-020	0.0370
R@15                     	2011-020	0.0370
R@20                     	2011-020	0.0370
R@30                     	2011-020	0.0370
R@50                     	2011-020	0.0370
R@100                    	2011-020	0.0741
R@200                    	2011-020	0.1481
R@500                    	2011-020	0.1481
iP@0.00                  	2011-020	0.5000
iP@0.10                  	2011-020	0.0238
iP@0.20                  	2011-020	0.0000
iP@0.30                  	2011-020	0.0000
iP@0.40                  	2011-020	0.0000
iP@0.50                  	2011-020	0.0000
iP@0.60                  	2011-020	0.0000
iP@0.70                  	2011-020	0.0000
iP@0.80                  	2011-020	0.0000
iP@0.90                  	2011-020	0.0000
iP@1.00                  	2011-020	0.0000
RP                       	2011-020	0.0370
RR                       	2011-020	0.5000
AP                       	2011-020	0.0214
nDCG@5                   	2011-020	0.1070
nDCG@10                  	2011-020	0.0694
nDCG@15                  	2011-020	0.0538
nDCG@20                  	2011-020	0.0455
nDCG@30                  	2011-020	0.0428
nDCG@50                  	2011-020	0.0434
nDCG@100                 	2011-020	0.0663
nDCG@200                 	2011-020	0.0947
nDCG@500                 	2011-020	0.0947

num_ret                  	2011-021	   404
num_rel                  	2011-021	    17
num_rel_ret              	2011-021	     7
P@5                      	2011-021	0.0000
P@10                     	2011-021	0.0000
P@15                     	2011-021	0.0000
P@20                     	2011-021	0.0000
P@30                     	2011-021	0.0000
P@50                     	2011-021	0.0000
P@100                    	2011-021	0.0000
P@200                    	2011-021	0.0150
P@500                    	2011-021	0.0140
R@5                      	2011-021	0.0000
R@10                     	2011-021	0.0000
R@15                     	2011-021	0.0000
R@20                     	2011-021	0.0000
R@30                     	2011-021	0.0000
R@50                     	2011-021	0.0000
R@100                    	2011-021	0.0000
R@200                    	2011-021	0.1765
R@500                    	2011-021	0.4118
iP@0.00                  	2011-021	0.0202
iP@0.10                  	2011-021	0.0202
iP@0.20                  	2011-021	0.0202
iP@0.30                  	2011-021	0.0202
iP@0.40                  	2011-021	0.0202
iP@0.50                  	2011-021	0.0000
iP@0.60                  	2011-021	0.0000
iP@0.70                  	2011-021	0.0000
iP@0.80                  	2011-021	0.0000
iP@0.90                  	2011-021	0.0000
iP@1.00                  	2011-021	0.0000
RP                       	2011-021	0.0000
RR                       	2011-021	0.0076
AP                       	2011-021	0.0060
nDCG@5                   	2011-021	0.0000
nDCG@10                  	2011-021	0.0000
nDCG@15                  	2011-021	0.0000
nDCG@20                  	2011-021	0.0000
nDCG@30                  	2011-021	0.0000
nDCG@50                  	2011-021	0.0000
nDCG@100                 	2011-021	0.0000
nDCG@200                 	2011-021	0.0733
nDCG@500                 	2011-021	0.1483

num_ret                  	2011-023	   500
num_rel                  	2011-023	    65
num_rel_ret              	2011-023	    64
P@5                      	2011-023	0.6000
P@10                     	2011-023	0.6000
P@15                     	2011-023	0.6667
P@20                     	2011-023	0.6000
P@30                     	2011-023	0.6000
P@50                     	2011-023	0.6800
P@100                    	2011-023	0.5300
P@200                    	2011-023	0.3000
P@500                    	2011-023	0.1280
R@5                      	2011-023	0.0462
R@10                     	2011-023	0.0923
R@15                     	2011-023	0.1538
R@20                     	2011-023	0.1846
R@30                     	2011-023	0.2769
R@50                     	2011-023	0.5231
R@100                    	2011-023	0.8154
R@200                    	2011-023	0.9231
R@500                    	2011-023	0.9846
iP@0.00                  	2011-023	0.7143
iP@0.10                  	2011-023	0.7143
iP@0.20                  	2011-023	0.6852
iP@0.30                  	2011-023	0.6852
iP@0.40                  	2011-023	0.6852
iP@0.50                  	2011-023	0.6852
iP@0.60                  	2011-023	0.6119
iP@0.70                  	2011-023	0.5750
iP@0.80                  	2011-023	0.5652
iP@0.90                  	2011-023	0.4403
iP@1.00                  	2011-023	0.0000
RP                       	2011-023	0.6000
RR                       	2011-023	0.3333
AP                       	2011-023	0.5613
nDCG@5                   	2011-023	0.4469
nDCG@10                  	2011-023	0.5080
nDCG@15                  	2011-023	0.5760
nDCG@20                  	2011-023	0.5464
nDCG@30                  	2011-023	0.5571
nDCG@50                  	2011-023	0.6047
nDCG@100                 	2011-023	0.7229
nDCG@200                 	2011-023	0.7815
nDCG@500                 	2011-023	0.8138

num_q                    	  all	    20
num_ret                  	  all	  7879
num_rel                  	  all	   984
num_rel_ret              	  all	   629
P@5                      	  all	0.2800
P@10                     	  all	0.2850
P@15                     	  all	0.2867
P@20                     	  all	0.2750
P@30                     	  all	0.2783
P@50                     	  all	0.2540
P@100                    	  all	0.1940
P@200                    	  all	0.1250
P@500                    	  all	0.0629
R@5                      	  all	0.0319
R@10                     	  all	0.0609
R@15                     	  all	0.0873
R@20                     	  all	0.1139
R@30                     	  all	0.1676
R@50                     	  all	0.2612
R@100                    	  all	0.4002
R@200                    	  all	0.5096
R@500                    	  all	0.6336
iP@0.00                  	  all	0.4660
iP@0.10                  	  all	0.3468
iP@0.20                  	  all	0.3268
iP@0.30                  	  all	0.3109
iP@0.40                  	  all	0.2623
iP@0.50                  	  all	0.2226
iP@0.60                  	  all	0.2006
iP@0.70                  	  all	0.1789
iP@0.80                  	  all	0.1477
iP@0.90                  	  all	0.0912
iP@1.00                  	  all	0.0071
RP                       	  all	0.2349
RR                       	  all	0.4119
AP                       	  all	0.2208
nDCG@5                   	  all	0.2391
nDCG@10                  	  all	0.2386
nDCG@15                  	  all	0.2472
nDCG@20                  	  all	0.2434
nDCG@30                  	  all	0.2551
nDCG@50                  	  all	0.2677
nDCG@100                 	  all	0.3273
nDCG@200                 	  all	0.3836
nDCG@500                 	  all	0.4409


