num_ret                  	2011-001	   500
num_rel                  	2011-001	    70
num_rel_ret              	2011-001	    42
P@5                      	2011-001	0.8000
P@10                     	2011-001	0.8000
P@15                     	2011-001	0.5333
P@20                     	2011-001	0.5000
P@30                     	2011-001	0.3667
P@50                     	2011-001	0.2800
P@100                    	2011-001	0.1700
P@200                    	2011-001	0.1300
P@500                    	2011-001	0.0840
R@5                      	2011-001	0.0571
R@10                     	2011-001	0.1143
R@15                     	2011-001	0.1143
R@20                     	2011-001	0.1429
R@30                     	2011-001	0.1571
R@50                     	2011-001	0.2000
R@100                    	2011-001	0.2429
R@200                    	2011-001	0.3714
R@500                    	2011-001	0.6000
iP@0.00                  	2011-001	0.8750
iP@0.10                  	2011-001	0.8750
iP@0.20                  	2011-001	0.3111
iP@0.30                  	2011-001	0.1667
iP@0.40                  	2011-001	0.1220
iP@0.50                  	2011-001	0.1016
iP@0.60                  	2011-001	0.0931
iP@0.70                  	2011-001	0.0000
iP@0.80                  	2011-001	0.0000
iP@0.90                  	2011-001	0.0000
iP@1.00                  	2011-001	0.0000
RP                       	2011-001	0.2286
RR                       	2011-001	0.5000
AP                       	2011-001	0.1766
nDCG@5                   	2011-001	0.6608
nDCG@10                  	2011-001	0.7137
nDCG@15                  	2011-001	0.5532
nDCG@20                  	2011-001	0.5281
nDCG@30                  	2011-001	0.4290
nDCG@50                  	2011-001	0.3406
nDCG@100                 	2011-001	0.3114
nDCG@200                 	2011-001	0.3882
nDCG@500                 	2011-001	0.5089

num_ret                  	2011-002	   500
num_rel                  	2011-002	    47
num_rel_ret              	2011-002	    36
P@5                      	2011-002	0.4000
P@10                     	2011-002	0.3000
P@15                     	2011-002	0.2000
P@20                     	2011-002	0.1500
P@30                     	2011-002	0.1333
P@50                     	2011-002	0.1000
P@100                    	2011-002	0.0600
P@200                    	2011-002	0.0950
P@500                    	2011-002	0.0720
R@5                      	2011-002	0.0426
R@10                     	2011-002	0.0638
R@15                     	2011-002	0.0638
R@20                     	2011-002	0.0638
R@30                     	2011-002	0.0851
R@50                     	2011-002	0.1064
R@100                    	2011-002	0.1277
R@200                    	2011-002	0.4043
R@500                    	2011-002	0.7660
iP@0.00                  	2011-002	1.0000
iP@0.10                  	2011-002	0.1316
iP@0.20                  	2011-002	0.1074
iP@0.30                  	2011-002	0.1074
iP@0.40                  	2011-002	0.1074
iP@0.50                  	2011-002	0.1074
iP@0.60                  	2011-002	0.0965
iP@0.70                  	2011-002	0.0904
iP@0.80                  	2011-002	0.0000
iP@0.90                  	2011-002	0.0000
iP@1.00                  	2011-002	0.0000
RP                       	2011-002	0.1064
RR                       	2011-002	1.0000
AP                       	2011-002	0.1129
nDCG@5                   	2011-002	0.2766
nDCG@10                  	2011-002	0.2113
nDCG@15                  	2011-002	0.1638
nDCG@20                  	2011-002	0.1364
nDCG@30                  	2011-002	0.1419
nDCG@50                  	2011-002	0.1380
nDCG@100                 	2011-002	0.1458
nDCG@200                 	2011-002	0.2908
nDCG@500                 	2011-002	0.4321

num_ret                  	2011-003	   500
num_rel                  	2011-003	    46
num_rel_ret              	2011-003	    18
P@5                      	2011-003	0.0000
P@10                     	2011-003	0.0000
P@15                     	2011-003	0.0667
P@20                     	2011-003	0.1000
P@30                     	2011-003	0.0667
P@50                     	2011-003	0.0600
P@100                    	2011-003	0.0500
P@200                    	2011-003	0.0500
P@500                    	2011-003	0.0360
R@5                      	2011-003	0.0000
R@10                     	2011-003	0.0000
R@15                     	2011-003	0.0217
R@20                     	2011-003	0.0435
R@30                     	2011-003	0.0435
R@50                     	2011-003	0.0652
R@100                    	2011-003	0.1087
R@200                    	2011-003	0.2174
R@500                    	2011-003	0.3913
iP@0.00                  	2011-003	0.1176
iP@0.10                  	2011-003	0.0577
iP@0.20                  	2011-003	0.0538
iP@0.30                  	2011-003	0.0418
iP@0.40                  	2011-003	0.0000
iP@0.50                  	2011-003	0.0000
iP@0.60                  	2011-003	0.0000
iP@0.70                  	2011-003	0.0000
iP@0.80                  	2011-003	0.0000
iP@0.90                  	2011-003	0.0000
iP@1.00                  	2011-003	0.0000
RP                       	2011-003	0.0652
RR                       	2011-003	0.0909
AP                       	2011-003	0.0209
nDCG@5                   	2011-003	0.0000
nDCG@10                  	2011-003	0.0000
nDCG@15                  	2011-003	0.0476
nDCG@20                  	2011-003	0.0737
nDCG@30                  	2011-003	0.0566
nDCG@50                  	2011-003	0.0615
nDCG@100                 	2011-003	0.0880
nDCG@200                 	2011-003	0.1412
nDCG@500                 	2011-003	0.2193

num_ret                  	2011-004	   500
num_rel                  	2011-004	    66
num_rel_ret              	2011-004	    46
P@5                      	2011-004	0.0000
P@10                     	2011-004	0.5000
P@15                     	2011-004	0.4000
P@20                     	2011-004	0.4000
P@30                     	2011-004	0.3000
P@50                     	2011-004	0.2000
P@100                    	2011-004	0.1800
P@200                    	2011-004	0.1500
P@500                    	2011-004	0.0920
R@5                      	2011-004	0.0000
R@10                     	2011-004	0.0758
R@15                     	2011-004	0.0909
R@20                     	2011-004	0.1212
R@30                     	2011-004	0.1364
R@50                     	2011-004	0.1515
R@100                    	2011-004	0.2727
R@200                    	2011-004	0.4545
R@500                    	2011-004	0.6970
iP@0.00                  	2011-004	0.5000
iP@0.10                  	2011-004	0.4706
iP@0.20                  	2011-004	0.1868
iP@0.30                  	2011-004	0.1600
iP@0.40                  	2011-004	0.1587
iP@0.50                  	2011-004	0.1289
iP@0.60                  	2011-004	0.1168
iP@0.70                  	2011-004	0.0000
iP@0.80                  	2011-004	0.0000
iP@0.90                  	2011-004	0.0000
iP@1.00                  	2011-004	0.0000
RP                       	2011-004	0.1970
RR                       	2011-004	0.1667
AP                       	2011-004	0.1370
nDCG@5                   	2011-004	0.0000
nDCG@10                  	2011-004	0.2861
nDCG@15                  	2011-004	0.2679
nDCG@20                  	2011-004	0.2919
nDCG@30                  	2011-004	0.2356
nDCG@50                  	2011-004	0.1889
nDCG@100                 	2011-004	0.2401
nDCG@200                 	2011-004	0.3447
nDCG@500                 	2011-004	0.4619

num_ret                  	2011-005	   500
num_rel                  	2011-005	    61
num_rel_ret              	2011-005	    44
P@5                      	2011-005	0.6000
P@10                     	2011-005	0.6000
P@15                     	2011-005	0.4667
P@20                     	2011-005	0.4500
P@30                     	2011-005	0.3667
P@50                     	2011-005	0.3400
P@100                    	2011-005	0.2500
P@200                    	2011-005	0.1800
P@500                    	2011-005	0.0880
R@5                      	2011-005	0.0492
R@10                     	2011-005	0.0984
R@15                     	2011-005	0.1148
R@20                     	2011-005	0.1475
R@30                     	2011-005	0.1803
R@50                     	2011-005	0.2787
R@100                    	2011-005	0.4098
R@200                    	2011-005	0.5902
R@500                    	2011-005	0.7213
iP@0.00                  	2011-005	0.6000
iP@0.10                  	2011-005	0.5385
iP@0.20                  	2011-005	0.3590
iP@0.30                  	2011-005	0.3175
iP@0.40                  	2011-005	0.2661
iP@0.50                  	2011-005	0.2385
iP@0.60                  	2011-005	0.1787
iP@0.70                  	2011-005	0.1319
iP@0.80                  	2011-005	0.0000
iP@0.90                  	2011-005	0.0000
iP@1.00                  	2011-005	0.0000
RP                       	2011-005	0.2951
RR                       	2011-005	0.3333
AP                       	2011-005	0.2217
nDCG@5                   	2011-005	0.2234
nDCG@10                  	2011-005	0.2765
nDCG@15                  	2011-005	0.2367
nDCG@20                  	2011-005	0.2308
nDCG@30                  	2011-005	0.2028
nDCG@50                  	2011-005	0.2437
nDCG@100                 	2011-005	0.2975
nDCG@200                 	2011-005	0.4045
nDCG@500                 	2011-005	0.4775

num_ret                  	2011-006	   500
num_rel                  	2011-006	    47
num_rel_ret              	2011-006	    40
P@5                      	2011-006	0.6000
P@10                     	2011-006	0.8000
P@15                     	2011-006	0.8000
P@20                     	2011-006	0.8000
P@30                     	2011-006	0.5667
P@50                     	2011-006	0.4000
P@100                    	2011-006	0.2800
P@200                    	2011-006	0.1450
P@500                    	2011-006	0.0800
R@5                      	2011-006	0.0638
R@10                     	2011-006	0.1702
R@15                     	2011-006	0.2553
R@20                     	2011-006	0.3404
R@30                     	2011-006	0.3617
R@50                     	2011-006	0.4255
R@100                    	2011-006	0.5957
R@200                    	2011-006	0.6170
R@500                    	2011-006	0.8511
iP@0.00                  	2011-006	1.0000
iP@0.10                  	2011-006	0.8333
iP@0.20                  	2011-006	0.8333
iP@0.30                  	2011-006	0.8333
iP@0.40                  	2011-006	0.4167
iP@0.50                  	2011-006	0.3676
iP@0.60                  	2011-006	0.1457
iP@0.70                  	2011-006	0.1223
iP@0.80                  	2011-006	0.1102
iP@0.90                  	2011-006	0.0000
iP@1.00                  	2011-006	0.0000
RP                       	2011-006	0.4043
RR                       	2011-006	1.0000
AP                       	2011-006	0.4040
nDCG@5                   	2011-006	0.6844
nDCG@10                  	2011-006	0.7952
nDCG@15                  	2011-006	0.7951
nDCG@20                  	2011-006	0.7795
nDCG@30                  	2011-006	0.6225
nDCG@50                  	2011-006	0.5464
nDCG@100                 	2011-006	0.6481
nDCG@200                 	2011-006	0.6539
nDCG@500                 	2011-006	0.7618

num_ret                  	2011-007	   500
num_rel                  	2011-007	    44
num_rel_ret              	2011-007	    14
P@5                      	2011-007	0.0000
P@10                     	2011-007	0.0000
P@15                     	2011-007	0.0000
P@20                     	2011-007	0.0000
P@30                     	2011-007	0.0000
P@50                     	2011-007	0.0200
P@100                    	2011-007	0.0200
P@200                    	2011-007	0.0300
P@500                    	2011-007	0.0280
R@5                      	2011-007	0.0000
R@10                     	2011-007	0.0000
R@15                     	2011-007	0.0000
R@20                     	2011-007	0.0000
R@30                     	2011-007	0.0000
R@50                     	2011-007	0.0227
R@100                    	2011-007	0.0455
R@200                    	2011-007	0.1364
R@500                    	2011-007	0.3182
iP@0.00                  	2011-007	0.0400
iP@0.10                  	2011-007	0.0400
iP@0.20                  	2011-007	0.0400
iP@0.30                  	2011-007	0.0350
iP@0.40                  	2011-007	0.0000
iP@0.50                  	2011-007	0.0000
iP@0.60                  	2011-007	0.0000
iP@0.70                  	2011-007	0.0000
iP@0.80                  	2011-007	0.0000
iP@0.90                  	2011-007	0.0000
iP@1.00                  	2011-007	0.0000
RP                       	2011-007	0.0227
RR                       	2011-007	0.0263
AP                       	2011-007	0.0104
nDCG@5                   	2011-007	0.0000
nDCG@10                  	2011-007	0.0000
nDCG@15                  	2011-007	0.0000
nDCG@20                  	2011-007	0.0000
nDCG@30                  	2011-007	0.0000
nDCG@50                  	2011-007	0.0175
nDCG@100                 	2011-007	0.0254
nDCG@200                 	2011-007	0.0759
nDCG@500                 	2011-007	0.1498

num_ret                  	2011-008	   500
num_rel                  	2011-008	    56
num_rel_ret              	2011-008	    45
P@5                      	2011-008	0.4000
P@10                     	2011-008	0.4000
P@15                     	2011-008	0.4667
P@20                     	2011-008	0.3500
P@30                     	2011-008	0.4333
P@50                     	2011-008	0.3600
P@100                    	2011-008	0.2200
P@200                    	2011-008	0.1600
P@500                    	2011-008	0.0900
R@5                      	2011-008	0.0357
R@10                     	2011-008	0.0714
R@15                     	2011-008	0.1250
R@20                     	2011-008	0.1250
R@30                     	2011-008	0.2321
R@50                     	2011-008	0.3214
R@100                    	2011-008	0.3929
R@200                    	2011-008	0.5714
R@500                    	2011-008	0.8036
iP@0.00                  	2011-008	0.6667
iP@0.10                  	2011-008	0.5000
iP@0.20                  	2011-008	0.4643
iP@0.30                  	2011-008	0.4048
iP@0.40                  	2011-008	0.2212
iP@0.50                  	2011-008	0.1684
iP@0.60                  	2011-008	0.1581
iP@0.70                  	2011-008	0.1356
iP@0.80                  	2011-008	0.0968
iP@0.90                  	2011-008	0.0000
iP@1.00                  	2011-008	0.0000
RP                       	2011-008	0.3214
RR                       	2011-008	0.5000
AP                       	2011-008	0.2247
nDCG@5                   	2011-008	0.3836
nDCG@10                  	2011-008	0.3909
nDCG@15                  	2011-008	0.4394
nDCG@20                  	2011-008	0.3658
nDCG@30                  	2011-008	0.4102
nDCG@50                  	2011-008	0.3832
nDCG@100                 	2011-008	0.4046
nDCG@200                 	2011-008	0.4850
nDCG@500                 	2011-008	0.5987

num_ret                  	2011-009	   500
num_rel                  	2011-009	    69
num_rel_ret              	2011-009	    36
P@5                      	2011-009	0.2000
P@10                     	2011-009	0.3000
P@15                     	2011-009	0.2667
P@20                     	2011-009	0.2000
P@30                     	2011-009	0.1333
P@50                     	2011-009	0.1800
P@100                    	2011-009	0.1000
P@200                    	2011-009	0.0750
P@500                    	2011-009	0.0720
R@5                      	2011-009	0.0145
R@10                     	2011-009	0.0435
R@15                     	2011-009	0.0580
R@20                     	2011-009	0.0580
R@30                     	2011-009	0.0580
R@50                     	2011-009	0.1304
R@100                    	2011-009	0.1449
R@200                    	2011-009	0.2174
R@500                    	2011-009	0.5217
iP@0.00                  	2011-009	0.5000
iP@0.10                  	2011-009	0.1800
iP@0.20                  	2011-009	0.0833
iP@0.30                  	2011-009	0.0833
iP@0.40                  	2011-009	0.0761
iP@0.50                  	2011-009	0.0727
iP@0.60                  	2011-009	0.0000
iP@0.70                  	2011-009	0.0000
iP@0.80                  	2011-009	0.0000
iP@0.90                  	2011-009	0.0000
iP@1.00                  	2011-009	0.0000
RP                       	2011-009	0.1304
RR                       	2011-009	0.5000
AP                       	2011-009	0.0619
nDCG@5                   	2011-009	0.1070
nDCG@10                  	2011-009	0.1704
nDCG@15                  	2011-009	0.1941
nDCG@20                  	2011-009	0.1748
nDCG@30                  	2011-009	0.1483
nDCG@50                  	2011-009	0.1885
nDCG@100                 	2011-009	0.1672
nDCG@200                 	2011-009	0.1997
nDCG@500                 	2011-009	0.3311

num_ret                  	2011-010	   500
num_rel                  	2011-010	    10
num_rel_ret              	2011-010	     9
P@5                      	2011-010	0.4000
P@10                     	2011-010	0.3000
P@15                     	2011-010	0.2000
P@20                     	2011-010	0.1500
P@30                     	2011-010	0.1667
P@50                     	2011-010	0.1200
P@100                    	2011-010	0.0700
P@200                    	2011-010	0.0350
P@500                    	2011-010	0.0180
R@5                      	2011-010	0.2000
R@10                     	2011-010	0.3000
R@15                     	2011-010	0.3000
R@20                     	2011-010	0.3000
R@30                     	2011-010	0.5000
R@50                     	2011-010	0.6000
R@100                    	2011-010	0.7000
R@200                    	2011-010	0.7000
R@500                    	2011-010	0.9000
iP@0.00                  	2011-010	1.0000
iP@0.10                  	2011-010	1.0000
iP@0.20                  	2011-010	0.6667
iP@0.30                  	2011-010	0.4286
iP@0.40                  	2011-010	0.1852
iP@0.50                  	2011-010	0.1852
iP@0.60                  	2011-010	0.1333
iP@0.70                  	2011-010	0.0795
iP@0.80                  	2011-010	0.0354
iP@0.90                  	2011-010	0.0202
iP@1.00                  	2011-010	0.0000
RP                       	2011-010	0.3000
RR                       	2011-010	1.0000
AP                       	2011-010	0.2703
nDCG@5                   	2011-010	0.5087
nDCG@10                  	2011-010	0.4449
nDCG@15                  	2011-010	0.4449
nDCG@20                  	2011-010	0.4449
nDCG@30                  	2011-010	0.5285
nDCG@50                  	2011-010	0.5768
nDCG@100                 	2011-010	0.5975
nDCG@200                 	2011-010	0.5975
nDCG@500                 	2011-010	0.6297

num_ret                  	2011-011	   500
num_rel                  	2011-011	    21
num_rel_ret              	2011-011	     8
P@5                      	2011-011	0.0000
P@10                     	2011-011	0.0000
P@15                     	2011-011	0.0000
P@20                     	2011-011	0.0000
P@30                     	2011-011	0.0000
P@50                     	2011-011	0.0000
P@100                    	2011-011	0.0100
P@200                    	2011-011	0.0100
P@500                    	2011-011	0.0160
R@5                      	2011-011	0.0000
R@10                     	2011-011	0.0000
R@15                     	2011-011	0.0000
R@20                     	2011-011	0.0000
R@30                     	2011-011	0.0000
R@50                     	2011-011	0.0000
R@100                    	2011-011	0.0476
R@200                    	2011-011	0.0952
R@500                    	2011-011	0.3810
iP@0.00                  	2011-011	0.0172
iP@0.10                  	2011-011	0.0172
iP@0.20                  	2011-011	0.0172
iP@0.30                  	2011-011	0.0172
iP@0.40                  	2011-011	0.0000
iP@0.50                  	2011-011	0.0000
iP@0.60                  	2011-011	0.0000
iP@0.70                  	2011-011	0.0000
iP@0.80                  	2011-011	0.0000
iP@0.90                  	2011-011	0.0000
iP@1.00                  	2011-011	0.0000
RP                       	2011-011	0.0000
RR                       	2011-011	0.0143
AP                       	2011-011	0.0057
nDCG@5                   	2011-011	0.0000
nDCG@10                  	2011-011	0.0000
nDCG@15                  	2011-011	0.0000
nDCG@20                  	2011-011	0.0000
nDCG@30                  	2011-011	0.0000
nDCG@50                  	2011-011	0.0000
nDCG@100                 	2011-011	0.0318
nDCG@200                 	2011-011	0.0448
nDCG@500                 	2011-011	0.1500

num_ret                  	2011-012	   500
num_rel                  	2011-012	    59
num_rel_ret              	2011-012	    53
P@5                      	2011-012	0.2000
P@10                     	2011-012	0.6000
P@15                     	2011-012	0.5333
P@20                     	2011-012	0.5500
P@30                     	2011-012	0.5000
P@50                     	2011-012	0.5200
P@100                    	2011-012	0.3800
P@200                    	2011-012	0.2400
P@500                    	2011-012	0.1060
R@5                      	2011-012	0.0169
R@10                     	2011-012	0.1017
R@15                     	2011-012	0.1356
R@20                     	2011-012	0.1864
R@30                     	2011-012	0.2542
R@50                     	2011-012	0.4407
R@100                    	2011-012	0.6441
R@200                    	2011-012	0.8136
R@500                    	2011-012	0.8983
iP@0.00                  	2011-012	0.6364
iP@0.10                  	2011-012	0.6364
iP@0.20                  	2011-012	0.6000
iP@0.30                  	2011-012	0.5574
iP@0.40                  	2011-012	0.5574
iP@0.50                  	2011-012	0.5574
iP@0.60                  	2011-012	0.4625
iP@0.70                  	2011-012	0.3360
iP@0.80                  	2011-012	0.2652
iP@0.90                  	2011-012	0.0000
iP@1.00                  	2011-012	0.0000
RP                       	2011-012	0.5424
RR                       	2011-012	0.2000
AP                       	2011-012	0.4003
nDCG@5                   	2011-012	0.1312
nDCG@10                  	2011-012	0.3330
nDCG@15                  	2011-012	0.3256
nDCG@20                  	2011-012	0.3204
nDCG@30                  	2011-012	0.3415
nDCG@50                  	2011-012	0.4190
nDCG@100                 	2011-012	0.5150
nDCG@200                 	2011-012	0.6120
nDCG@500                 	2011-012	0.6563

num_ret                  	2011-013	   500
num_rel                  	2011-013	    77
num_rel_ret              	2011-013	    54
P@5                      	2011-013	0.8000
P@10                     	2011-013	0.8000
P@15                     	2011-013	0.7333
P@20                     	2011-013	0.6500
P@30                     	2011-013	0.5667
P@50                     	2011-013	0.4800
P@100                    	2011-013	0.2900
P@200                    	2011-013	0.1950
P@500                    	2011-013	0.1080
R@5                      	2011-013	0.0519
R@10                     	2011-013	0.1039
R@15                     	2011-013	0.1429
R@20                     	2011-013	0.1688
R@30                     	2011-013	0.2208
R@50                     	2011-013	0.3117
R@100                    	2011-013	0.3766
R@200                    	2011-013	0.5065
R@500                    	2011-013	0.7013
iP@0.00                  	2011-013	1.0000
iP@0.10                  	2011-013	0.8000
iP@0.20                  	2011-013	0.5938
iP@0.30                  	2011-013	0.5000
iP@0.40                  	2011-013	0.2818
iP@0.50                  	2011-013	0.1961
iP@0.60                  	2011-013	0.1715
iP@0.70                  	2011-013	0.1091
iP@0.80                  	2011-013	0.0000
iP@0.90                  	2011-013	0.0000
iP@1.00                  	2011-013	0.0000
RP                       	2011-013	0.3636
RR                       	2011-013	1.0000
AP                       	2011-013	0.3063
nDCG@5                   	2011-013	0.7958
nDCG@10                  	2011-013	0.7225
nDCG@15                  	2011-013	0.6269
nDCG@20                  	2011-013	0.5727
nDCG@30                  	2011-013	0.5203
nDCG@50                  	2011-013	0.4497
nDCG@100                 	2011-013	0.4104
nDCG@200                 	2011-013	0.4903
nDCG@500                 	2011-013	0.5932

num_ret                  	2011-014	   500
num_rel                  	2011-014	    17
num_rel_ret              	2011-014	    15
P@5                      	2011-014	0.4000
P@10                     	2011-014	0.4000
P@15                     	2011-014	0.2667
P@20                     	2011-014	0.2000
P@30                     	2011-014	0.1333
P@50                     	2011-014	0.1600
P@100                    	2011-014	0.0900
P@200                    	2011-014	0.0500
P@500                    	2011-014	0.0300
R@5                      	2011-014	0.1176
R@10                     	2011-014	0.2353
R@15                     	2011-014	0.2353
R@20                     	2011-014	0.2353
R@30                     	2011-014	0.2353
R@50                     	2011-014	0.4706
R@100                    	2011-014	0.5294
R@200                    	2011-014	0.5882
R@500                    	2011-014	0.8824
iP@0.00                  	2011-014	0.5000
iP@0.10                  	2011-014	0.5000
iP@0.20                  	2011-014	0.5000
iP@0.30                  	2011-014	0.1892
iP@0.40                  	2011-014	0.1892
iP@0.50                  	2011-014	0.1500
iP@0.60                  	2011-014	0.0436
iP@0.70                  	2011-014	0.0436
iP@0.80                  	2011-014	0.0365
iP@0.90                  	2011-014	0.0000
iP@1.00                  	2011-014	0.0000
RP                       	2011-014	0.2353
RR                       	2011-014	0.5000
AP                       	2011-014	0.1783
nDCG@5                   	2011-014	0.3601
nDCG@10                  	2011-014	0.4026
nDCG@15                  	2011-014	0.3485
nDCG@20                  	2011-014	0.3321
nDCG@30                  	2011-014	0.3321
nDCG@50                  	2011-014	0.4228
nDCG@100                 	2011-014	0.4555
nDCG@200                 	2011-014	0.4696
nDCG@500                 	2011-014	0.5394

num_ret                  	2011-015	   500
num_rel                  	2011-015	    45
num_rel_ret              	2011-015	    25
P@5                      	2011-015	0.2000
P@10                     	2011-015	0.3000
P@15                     	2011-015	0.2000
P@20                     	2011-015	0.1500
P@30                     	2011-015	0.1000
P@50                     	2011-015	0.0800
P@100                    	2011-015	0.0800
P@200                    	2011-015	0.0500
P@500                    	2011-015	0.0500
R@5                      	2011-015	0.0222
R@10                     	2011-015	0.0667
R@15                     	2011-015	0.0667
R@20                     	2011-015	0.0667
R@30                     	2011-015	0.0667
R@50                     	2011-015	0.0889
R@100                    	2011-015	0.1778
R@200                    	2011-015	0.2222
R@500                    	2011-015	0.5556
iP@0.00                  	2011-015	0.3333
iP@0.10                  	2011-015	0.0930
iP@0.20                  	2011-015	0.0885
iP@0.30                  	2011-015	0.0583
iP@0.40                  	2011-015	0.0583
iP@0.50                  	2011-015	0.0526
iP@0.60                  	2011-015	0.0000
iP@0.70                  	2011-015	0.0000
iP@0.80                  	2011-015	0.0000
iP@0.90                  	2011-015	0.0000
iP@1.00                  	2011-015	0.0000
RP                       	2011-015	0.0667
RR                       	2011-015	0.2500
AP                       	2011-015	0.0511
nDCG@5                   	2011-015	0.0730
nDCG@10                  	2011-015	0.1920
nDCG@15                  	2011-015	0.1489
nDCG@20                  	2011-015	0.1239
nDCG@30                  	2011-015	0.0952
nDCG@50                  	2011-015	0.0949
nDCG@100                 	2011-015	0.1377
nDCG@200                 	2011-015	0.1577
nDCG@500                 	2011-015	0.3143

num_ret                  	2011-016	   500
num_rel                  	2011-016	    78
num_rel_ret              	2011-016	    32
P@5                      	2011-016	0.2000
P@10                     	2011-016	0.1000
P@15                     	2011-016	0.0667
P@20                     	2011-016	0.0500
P@30                     	2011-016	0.0333
P@50                     	2011-016	0.0200
P@100                    	2011-016	0.0500
P@200                    	2011-016	0.0600
P@500                    	2011-016	0.0640
R@5                      	2011-016	0.0128
R@10                     	2011-016	0.0128
R@15                     	2011-016	0.0128
R@20                     	2011-016	0.0128
R@30                     	2011-016	0.0128
R@50                     	2011-016	0.0128
R@100                    	2011-016	0.0641
R@200                    	2011-016	0.1538
R@500                    	2011-016	0.4103
iP@0.00                  	2011-016	0.3333
iP@0.10                  	2011-016	0.0733
iP@0.20                  	2011-016	0.0733
iP@0.30                  	2011-016	0.0733
iP@0.40                  	2011-016	0.0641
iP@0.50                  	2011-016	0.0000
iP@0.60                  	2011-016	0.0000
iP@0.70                  	2011-016	0.0000
iP@0.80                  	2011-016	0.0000
iP@0.90                  	2011-016	0.0000
iP@1.00                  	2011-016	0.0000
RP                       	2011-016	0.0513
RR                       	2011-016	0.3333
AP                       	2011-016	0.0292
nDCG@5                   	2011-016	0.1696
nDCG@10                  	2011-016	0.1100
nDCG@15                  	2011-016	0.0853
nDCG@20                  	2011-016	0.0710
nDCG@30                  	2011-016	0.0546
nDCG@50                  	2011-016	0.0438
nDCG@100                 	2011-016	0.0832
nDCG@200                 	2011-016	0.1244
nDCG@500                 	2011-016	0.2383

num_ret                  	2011-017	   500
num_rel                  	2011-017	    50
num_rel_ret              	2011-017	    40
P@5                      	2011-017	0.6000
P@10                     	2011-017	0.4000
P@15                     	2011-017	0.3333
P@20                     	2011-017	0.3500
P@30                     	2011-017	0.3333
P@50                     	2011-017	0.2400
P@100                    	2011-017	0.1700
P@200                    	2011-017	0.1250
P@500                    	2011-017	0.0800
R@5                      	2011-017	0.0600
R@10                     	2011-017	0.0800
R@15                     	2011-017	0.1000
R@20                     	2011-017	0.1400
R@30                     	2011-017	0.2000
R@50                     	2011-017	0.2400
R@100                    	2011-017	0.3400
R@200                    	2011-017	0.5000
R@500                    	2011-017	0.8000
iP@0.00                  	2011-017	0.6667
iP@0.10                  	2011-017	0.3846
iP@0.20                  	2011-017	0.3846
iP@0.30                  	2011-017	0.1720
iP@0.40                  	2011-017	0.1457
iP@0.50                  	2011-017	0.1295
iP@0.60                  	2011-017	0.1167
iP@0.70                  	2011-017	0.1039
iP@0.80                  	2011-017	0.0833
iP@0.90                  	2011-017	0.0000
iP@1.00                  	2011-017	0.0000
RP                       	2011-017	0.2400
RR                       	2011-017	0.5000
AP                       	2011-017	0.1718
nDCG@5                   	2011-017	0.3230
nDCG@10                  	2011-017	0.2443
nDCG@15                  	2011-017	0.2371
nDCG@20                  	2011-017	0.2516
nDCG@30                  	2011-017	0.2746
nDCG@50                  	2011-017	0.2390
nDCG@100                 	2011-017	0.2986
nDCG@200                 	2011-017	0.3803
nDCG@500                 	2011-017	0.4982

num_ret                  	2011-018	   500
num_rel                  	2011-018	    48
num_rel_ret              	2011-018	    37
P@5                      	2011-018	0.2000
P@10                     	2011-018	0.4000
P@15                     	2011-018	0.4667
P@20                     	2011-018	0.5000
P@30                     	2011-018	0.4667
P@50                     	2011-018	0.3200
P@100                    	2011-018	0.2200
P@200                    	2011-018	0.1300
P@500                    	2011-018	0.0740
R@5                      	2011-018	0.0208
R@10                     	2011-018	0.0833
R@15                     	2011-018	0.1458
R@20                     	2011-018	0.2083
R@30                     	2011-018	0.2917
R@50                     	2011-018	0.3333
R@100                    	2011-018	0.4583
R@200                    	2011-018	0.5417
R@500                    	2011-018	0.7708
iP@0.00                  	2011-018	1.0000
iP@0.10                  	2011-018	0.5000
iP@0.20                  	2011-018	0.5000
iP@0.30                  	2011-018	0.4103
iP@0.40                  	2011-018	0.3043
iP@0.50                  	2011-018	0.1890
iP@0.60                  	2011-018	0.1255
iP@0.70                  	2011-018	0.1048
iP@0.80                  	2011-018	0.0000
iP@0.90                  	2011-018	0.0000
iP@1.00                  	2011-018	0.0000
RP                       	2011-018	0.3333
RR                       	2011-018	1.0000
AP                       	2011-018	0.2353
nDCG@5                   	2011-018	0.3937
nDCG@10                  	2011-018	0.4436
nDCG@15                  	2011-018	0.5053
nDCG@20                  	2011-018	0.5171
nDCG@30                  	2011-018	0.4936
nDCG@50                  	2011-018	0.4056
nDCG@100                 	2011-018	0.4726
nDCG@200                 	2011-018	0.5105
nDCG@500                 	2011-018	0.6107

num_ret                  	2011-019	   500
num_rel                  	2011-019	    78
num_rel_ret              	2011-019	    18
P@5                      	2011-019	0.0000
P@10                     	2011-019	0.0000
P@15                     	2011-019	0.0000
P@20                     	2011-019	0.0000
P@30                     	2011-019	0.0000
P@50                     	2011-019	0.0200
P@100                    	2011-019	0.0400
P@200                    	2011-019	0.0550
P@500                    	2011-019	0.0360
R@5                      	2011-019	0.0000
R@10                     	2011-019	0.0000
R@15                     	2011-019	0.0000
R@20                     	2011-019	0.0000
R@30                     	2011-019	0.0000
R@50                     	2011-019	0.0128
R@100                    	2011-019	0.0513
R@200                    	2011-019	0.1410
R@500                    	2011-019	0.2308
iP@0.00                  	2011-019	0.0649
iP@0.10                  	2011-019	0.0649
iP@0.20                  	2011-019	0.0489
iP@0.30                  	2011-019	0.0000
iP@0.40                  	2011-019	0.0000
iP@0.50                  	2011-019	0.0000
iP@0.60                  	2011-019	0.0000
iP@0.70                  	2011-019	0.0000
iP@0.80                  	2011-019	0.0000
iP@0.90                  	2011-019	0.0000
iP@1.00                  	2011-019	0.0000
RP                       	2011-019	0.0385
RR                       	2011-019	0.0200
AP                       	2011-019	0.0113
nDCG@5                   	2011-019	0.0000
nDCG@10                  	2011-019	0.0000
nDCG@15                  	2011-019	0.0000
nDCG@20                  	2011-019	0.0000
nDCG@30                  	2011-019	0.0000
nDCG@50                  	2011-019	0.0137
nDCG@100                 	2011-019	0.0440
nDCG@200                 	2011-019	0.1082
nDCG@500                 	2011-019	0.1640

num_ret                  	2011-020	   500
num_rel                  	2011-020	    27
num_rel_ret              	2011-020	    20
P@5                      	2011-020	0.6000
P@10                     	2011-020	0.3000
P@15                     	2011-020	0.2667
P@20                     	2011-020	0.2000
P@30                     	2011-020	0.1667
P@50                     	2011-020	0.1200
P@100                    	2011-020	0.0800
P@200                    	2011-020	0.0700
P@500                    	2011-020	0.0400
R@5                      	2011-020	0.1111
R@10                     	2011-020	0.1111
R@15                     	2011-020	0.1481
R@20                     	2011-020	0.1481
R@30                     	2011-020	0.1852
R@50                     	2011-020	0.2222
R@100                    	2011-020	0.2963
R@200                    	2011-020	0.5185
R@500                    	2011-020	0.7407
iP@0.00                  	2011-020	0.7500
iP@0.10                  	2011-020	0.7500
iP@0.20                  	2011-020	0.1200
iP@0.30                  	2011-020	0.1019
iP@0.40                  	2011-020	0.1019
iP@0.50                  	2011-020	0.0979
iP@0.60                  	2011-020	0.0623
iP@0.70                  	2011-020	0.0586
iP@0.80                  	2011-020	0.0000
iP@0.90                  	2011-020	0.0000
iP@1.00                  	2011-020	0.0000
RP                       	2011-020	0.1852
RR                       	2011-020	0.5000
AP                       	2011-020	0.1360
nDCG@5                   	2011-020	0.4226
nDCG@10                  	2011-020	0.2743
nDCG@15                  	2011-020	0.2339
nDCG@20                  	2011-020	0.1980
nDCG@30                  	2011-020	0.2163
nDCG@50                  	2011-020	0.2435
nDCG@100                 	2011-020	0.2656
nDCG@200                 	2011-020	0.3745
nDCG@500                 	2011-020	0.4674

num_ret                  	2011-021	   500
num_rel                  	2011-021	    17
num_rel_ret              	2011-021	     8
P@5                      	2011-021	0.4000
P@10                     	2011-021	0.3000
P@15                     	2011-021	0.2000
P@20                     	2011-021	0.1500
P@30                     	2011-021	0.1333
P@50                     	2011-021	0.0800
P@100                    	2011-021	0.0500
P@200                    	2011-021	0.0300
P@500                    	2011-021	0.0160
R@5                      	2011-021	0.1176
R@10                     	2011-021	0.1765
R@15                     	2011-021	0.1765
R@20                     	2011-021	0.1765
R@30                     	2011-021	0.2353
R@50                     	2011-021	0.2353
R@100                    	2011-021	0.2941
R@200                    	2011-021	0.3529
R@500                    	2011-021	0.4706
iP@0.00                  	2011-021	1.0000
iP@0.10                  	2011-021	1.0000
iP@0.20                  	2011-021	0.1333
iP@0.30                  	2011-021	0.0364
iP@0.40                  	2011-021	0.0341
iP@0.50                  	2011-021	0.0000
iP@0.60                  	2011-021	0.0000
iP@0.70                  	2011-021	0.0000
iP@0.80                  	2011-021	0.0000
iP@0.90                  	2011-021	0.0000
iP@1.00                  	2011-021	0.0000
RP                       	2011-021	0.1765
RR                       	2011-021	1.0000
AP                       	2011-021	0.1531
nDCG@5                   	2011-021	0.2766
nDCG@10                  	2011-021	0.2113
nDCG@15                  	2011-021	0.1797
nDCG@20                  	2011-021	0.1719
nDCG@30                  	2011-021	0.1900
nDCG@50                  	2011-021	0.1900
nDCG@100                 	2011-021	0.2047
nDCG@200                 	2011-021	0.2290
nDCG@500                 	2011-021	0.2620

num_ret                  	2011-022	   500
num_rel                  	2011-022	    54
num_rel_ret              	2011-022	    38
P@5                      	2011-022	0.0000
P@10                     	2011-022	0.4000
P@15                     	2011-022	0.4000
P@20                     	2011-022	0.4000
P@30                     	2011-022	0.3000
P@50                     	2011-022	0.2000
P@100                    	2011-022	0.1300
P@200                    	2011-022	0.1150
P@500                    	2011-022	0.0760
R@5                      	2011-022	0.0000
R@10                     	2011-022	0.0741
R@15                     	2011-022	0.1111
R@20                     	2011-022	0.1481
R@30                     	2011-022	0.1667
R@50                     	2011-022	0.1852
R@100                    	2011-022	0.2407
R@200                    	2011-022	0.4259
R@500                    	2011-022	0.7037
iP@0.00                  	2011-022	0.5000
iP@0.10                  	2011-022	0.5000
iP@0.20                  	2011-022	0.2115
iP@0.30                  	2011-022	0.1469
iP@0.40                  	2011-022	0.1410
iP@0.50                  	2011-022	0.1055
iP@0.60                  	2011-022	0.1028
iP@0.70                  	2011-022	0.0878
iP@0.80                  	2011-022	0.0000
iP@0.90                  	2011-022	0.0000
iP@1.00                  	2011-022	0.0000
RP                       	2011-022	0.2037
RR                       	2011-022	0.1667
AP                       	2011-022	0.1294
nDCG@5                   	2011-022	0.0000
nDCG@10                  	2011-022	0.2116
nDCG@15                  	2011-022	0.2577
nDCG@20                  	2011-022	0.2808
nDCG@30                  	2011-022	0.2269
nDCG@50                  	2011-022	0.1861
nDCG@100                 	2011-022	0.2201
nDCG@200                 	2011-022	0.3330
nDCG@500                 	2011-022	0.4680

num_ret                  	2011-023	   500
num_rel                  	2011-023	    65
num_rel_ret              	2011-023	    42
P@5                      	2011-023	0.6000
P@10                     	2011-023	0.4000
P@15                     	2011-023	0.3333
P@20                     	2011-023	0.3000
P@30                     	2011-023	0.2333
P@50                     	2011-023	0.2200
P@100                    	2011-023	0.1800
P@200                    	2011-023	0.1350
P@500                    	2011-023	0.0840
R@5                      	2011-023	0.0462
R@10                     	2011-023	0.0615
R@15                     	2011-023	0.0769
R@20                     	2011-023	0.0923
R@30                     	2011-023	0.1077
R@50                     	2011-023	0.1692
R@100                    	2011-023	0.2769
R@200                    	2011-023	0.4154
R@500                    	2011-023	0.6462
iP@0.00                  	2011-023	1.0000
iP@0.10                  	2011-023	0.2593
iP@0.20                  	2011-023	0.2258
iP@0.30                  	2011-023	0.1933
iP@0.40                  	2011-023	0.1656
iP@0.50                  	2011-023	0.1518
iP@0.60                  	2011-023	0.0931
iP@0.70                  	2011-023	0.0000
iP@0.80                  	2011-023	0.0000
iP@0.90                  	2011-023	0.0000
iP@1.00                  	2011-023	0.0000
RP                       	2011-023	0.2154
RR                       	2011-023	1.0000
AP                       	2011-023	0.1586
nDCG@5                   	2011-023	0.6379
nDCG@10                  	2011-023	0.4802
nDCG@15                  	2011-023	0.4184
nDCG@20                  	2011-023	0.3831
nDCG@30                  	2011-023	0.3171
nDCG@50                  	2011-023	0.2818
nDCG@100                 	2011-023	0.3191
nDCG@200                 	2011-023	0.3976
nDCG@500                 	2011-023	0.5179

num_q                    	  all	    23
num_ret                  	  all	 11500
num_rel                  	  all	  1152
num_rel_ret              	  all	   720
P@5                      	  all	0.3304
P@10                     	  all	0.3652
P@15                     	  all	0.3130
P@20                     	  all	0.2870
P@30                     	  all	0.2391
P@50                     	  all	0.1965
P@100                    	  all	0.1378
P@200                    	  all	0.1007
P@500                    	  all	0.0626
R@5                      	  all	0.0452
R@10                     	  all	0.0889
R@15                     	  all	0.1085
R@20                     	  all	0.1272
R@30                     	  all	0.1622
R@50                     	  all	0.2185
R@100                    	  all	0.2973
R@200                    	  all	0.4154
R@500                    	  all	0.6418
iP@0.00                  	  all	0.6131
iP@0.10                  	  all	0.4437
iP@0.20                  	  all	0.2871
iP@0.30                  	  all	0.2189
iP@0.40                  	  all	0.1564
iP@0.50                  	  all	0.1304
iP@0.60                  	  all	0.0913
iP@0.70                  	  all	0.0610
iP@0.80                  	  all	0.0273
iP@0.90                  	  all	0.0009
iP@1.00                  	  all	0.0000
RP                       	  all	0.2053
RR                       	  all	0.5044
AP                       	  all	0.1568
nDCG@5                   	  all	0.2795
nDCG@10                  	  all	0.3006
nDCG@15                  	  all	0.2830
nDCG@20                  	  all	0.2717
nDCG@30                  	  all	0.2538
nDCG@50                  	  all	0.2467
nDCG@100                 	  all	0.2776
nDCG@200                 	  all	0.3397
nDCG@500                 	  all	0.4370


